{
	"segments": {
		"right": [
			{
				"function": "powerline.segments.common.time.date",
				"args": {
					"format": "%H:%M",
					"istime": true
				}
			},
			{
				"function": "powerline.segments.common.net.hostname"
			}
		]
	}
}
